{
  "id": "Aire, tierra y perditio_-908,70,1392",
  "name": "Aire, tierra y perditio",
  "icon": "waypoint-normal.png",
  "x": -908,
  "y": 70,
  "z": 1392,
  "r": 211,
  "g": 159,
  "b": 12,
  "enable": true,
  "type": "Normal",
  "origin": "JourneyMap",
  "dimensions": [
    0
  ]
}