{
  "id": "Ordo y perditio_-762,78,1148",
  "name": "Ordo y perditio",
  "icon": "waypoint-normal.png",
  "x": -762,
  "y": 78,
  "z": 1148,
  "r": 167,
  "g": 235,
  "b": 38,
  "enable": true,
  "type": "Normal",
  "origin": "JourneyMap",
  "dimensions": [
    0
  ]
}