{
  "id": "Death 1:19:46 AM 12/20/15_-636,22,292",
  "name": "Death 1:19:46 AM 12/20/15",
  "icon": "waypoint-death.png",
  "x": -636,
  "y": 22,
  "z": 292,
  "r": 16,
  "g": 150,
  "b": 9,
  "enable": true,
  "type": "Death",
  "origin": "JourneyMap",
  "dimensions": [
    0
  ]
}