{
  "id": "-768, 1418_-768,65,1418",
  "name": "-768, 1418",
  "icon": "waypoint-normal.png",
  "x": -768,
  "y": 65,
  "z": 1418,
  "r": 252,
  "g": 50,
  "b": 231,
  "enable": true,
  "type": "Normal",
  "origin": "JourneyMap",
  "dimensions": [
    0
  ]
}