{
  "id": "Muerte 7:16:28 PM 11/11/15_0,-255,0",
  "name": "Muerte 7:16:28 PM 11/11/15",
  "icon": "waypoint-death.png",
  "x": 0,
  "y": -255,
  "z": 0,
  "r": 137,
  "g": 106,
  "b": 46,
  "enable": true,
  "type": "Death",
  "origin": "JourneyMap",
  "dimensions": [
    -112
  ]
}